{
  "mappings": [
    {
      "id": "P60135897",
      "alternateURLs": [
        {
          "locale": "en-GB",
          "url": "https://www.marksandspencer.com/cotton-chinos-with-stretch-3-16-years-/p/clp60135897"
        },
        {
          "locale": "x-default",
          "url": "https://www.marksandspencer.com/cotton-chinos-with-stretch-3-16-years-/p/clp60135897"
        },
        {
          "locale": "ar-SA",
          "url": "https://www.marksandspencer.com/sa/%D8%B3%D8%B1%D9%88%D8%A7%D9%84-%D8%AA%D8%B4%D9%8A%D9%86%D9%88-%D9%85%D9%86-%D8%A7%D9%84%D9%82%D8%B7%D9%86-%D8%A7%D9%84%D9%85%D8%B7%D8%A7%D8%B7%D9%8A-3-16-%D8%B3%D9%86%D8%A9/p/P60135897.html"
        },
        {
          "locale": "en-CZ",
          "url": "https://www.marksandspencer.com/en-cz/cotton-chinos-with-stretch-3-16-yrs/p/P60135897.html"
        },
        {
          "locale": "en-PL",
          "url": "https://www.marksandspencer.com/en-pl/cotton-chinos-with-stretch-3-16-yrs/p/P60135897.html"
        },
        {
          "locale": "es-US",
          "url": "https://www.marksandspencer.com/es-us/chinos-de-algod%C3%B3n-el%C3%A1sticos-3-16andnbsp%3Ba%C3%B1os/p/P60135897.html"
        },
        {
          "locale": "en-DE",
          "url": "https://www.marksandspencer.com/en-de/cotton-chinos-with-stretch-3-16-yrs/p/P60135897.html"
        },
        {
          "locale": "ar-BH",
          "url": "https://www.marksandspencer.com/bh/%D8%B3%D8%B1%D9%88%D8%A7%D9%84-%D8%AA%D8%B4%D9%8A%D9%86%D9%88-%D9%85%D9%86-%D8%A7%D9%84%D9%82%D8%B7%D9%86-%D8%A7%D9%84%D9%85%D8%B7%D8%A7%D8%B7%D9%8A-3-16-%D8%B3%D9%86%D8%A9/p/P60135897.html"
        },
        {
          "locale": "en-PT",
          "url": "https://www.marksandspencer.com/pt/cotton-chinos-with-stretch-3-16-yrs/p/P60135897.html"
        },
        {
          "locale": "en-HK",
          "url": "https://www.marksandspencer.com/hk/cotton-chinos-with-stretch-3-16-yrs/p/P60135897.html"
        },
        {
          "locale": "cs-CZ",
          "url": "https://www.marksandspencer.com/cz/bavln%C4%9Bn%C3%A9-kalhoty-chino-se-stre%C4%8Dem-3%E2%80%9316andnbsp%3Blet/p/P60135897.html"
        },
        {
          "locale": "en-KW",
          "url": "https://www.marksandspencer.com/kw/cotton-chinos-with-stretch-3-16-yrs/p/P60135897.html"
        },
        {
          "locale": "en-GR",
          "url": "https://www.marksandspencer.com/en-gr/cotton-chinos-with-stretch-3-16-yrs/p/P60135897.html"
        },
        {
          "locale": "en-CY",
          "url": "https://www.marksandspencer.com/cy/cotton-chinos-with-stretch-3-16-yrs/p/P60135897.html"
        },
        {
          "locale": "ar-KW",
          "url": "https://www.marksandspencer.com/ar-kw/%D8%B3%D8%B1%D9%88%D8%A7%D9%84-%D8%AA%D8%B4%D9%8A%D9%86%D9%88-%D9%85%D9%86-%D8%A7%D9%84%D9%82%D8%B7%D9%86-%D8%A7%D9%84%D9%85%D8%B7%D8%A7%D8%B7%D9%8A-3-16-%D8%B3%D9%86%D8%A9/p/P60135897.html"
        },
        {
          "locale": "en-US",
          "url": "https://www.marksandspencer.com/us/cotton-chinos-with-stretch-3-16-yrs/p/P60135897.html"
        },
        {
          "locale": "en-AE",
          "url": "https://www.marksandspencer.com/ae/cotton-chinos-with-stretch-3-16-yrs/p/P60135897.html"
        },
        {
          "locale": "en-IL",
          "url": "https://www.marksandspencer.com/il/cotton-chinos-with-stretch-3-16-yrs/p/P60135897.html"
        },
        {
          "locale": "en-LU",
          "url": "https://www.marksandspencer.com/en-lu/cotton-chinos-with-stretch-3-16-yrs/p/P60135897.html"
        },
        {
          "locale": "ar-OM",
          "url": "https://www.marksandspencer.com/om/%D8%B3%D8%B1%D9%88%D8%A7%D9%84-%D8%AA%D8%B4%D9%8A%D9%86%D9%88-%D9%85%D9%86-%D8%A7%D9%84%D9%82%D8%B7%D9%86-%D8%A7%D9%84%D9%85%D8%B7%D8%A7%D8%B7%D9%8A-3-16-%D8%B3%D9%86%D8%A9/p/P60135897.html"
        },
        {
          "locale": "nl-NL",
          "url": "https://www.marksandspencer.com/nl/katoenen-chino-met-stretch-3-16-jaar/p/P60135897.html"
        },
        {
          "locale": "en-DK",
          "url": "https://www.marksandspencer.com/dk/cotton-chinos-with-stretch-3-16-yrs/p/P60135897.html"
        },
        {
          "locale": "en-HU",
          "url": "https://www.marksandspencer.com/hu/cotton-chinos-with-stretch-3-16-yrs/p/P60135897.html"
        },
        {
          "locale": "nl-BE",
          "url": "https://www.marksandspencer.com/nl-be/katoenen-chino-met-stretch-3-16-jaar/p/P60135897.html"
        },
        {
          "locale": "es-ES",
          "url": "https://www.marksandspencer.com/es/chinos-de-algod%C3%B3n-el%C3%A1sticos-3-16andnbsp%3Ba%C3%B1os/p/P60135897.html"
        },
        {
          "locale": "en-QA",
          "url": "https://www.marksandspencer.com/qa/cotton-chinos-with-stretch-3-16-yrs/p/P60135897.html"
        },
        {
          "locale": "fr-LU",
          "url": "https://www.marksandspencer.com/fr-lu/chino-en-coton-extensible-du-3-au-16andnbsp%3Bans/p/P60135897.html"
        },
        {
          "locale": "fr-FR",
          "url": "https://www.marksandspencer.com/fr/chino-en-coton-extensible-du-3-au-16andnbsp%3Bans/p/P60135897.html"
        },
        {
          "locale": "de-DE",
          "url": "https://www.marksandspencer.com/de/chino-hose-aus-baumwolle-mit-stretchanteil-3%E2%80%9316-jahre/p/P60135897.html"
        },
        {
          "locale": "en-NL",
          "url": "https://www.marksandspencer.com/en-nl/cotton-chinos-with-stretch-3-16-yrs/p/P60135897.html"
        },
        {
          "locale": "en-JE",
          "url": "https://www.marksandspencer.com/je/cotton-chinos-with-stretch-3-16-yrs/p/P60135897.html"
        },
        {
          "locale": "en-NO",
          "url": "https://www.marksandspencer.com/no/cotton-chinos-with-stretch-3-16-yrs/p/P60135897.html"
        },
        {
          "locale": "en-RS",
          "url": "https://www.marksandspencer.com/rs/cotton-chinos-with-stretch-3-16-yrs/p/P60135897.html"
        },
        {
          "locale": "en-BH",
          "url": "https://www.marksandspencer.com/en-bh/cotton-chinos-with-stretch-3-16-yrs/p/P60135897.html"
        },
        {
          "locale": "en-JP",
          "url": "https://www.marksandspencer.com/jp/cotton-chinos-with-stretch-3-16-yrs/p/P60135897.html"
        },
        {
          "locale": "en-BE",
          "url": "https://www.marksandspencer.com/en-be/cotton-chinos-with-stretch-3-16-yrs/p/P60135897.html"
        },
        {
          "locale": "en-FI",
          "url": "https://www.marksandspencer.com/fi/cotton-chinos-with-stretch-3-16-yrs/p/P60135897.html"
        },
        {
          "locale": "en-ES",
          "url": "https://www.marksandspencer.com/en-es/cotton-chinos-with-stretch-3-16-yrs/p/P60135897.html"
        },
        {
          "locale": "el-GR",
          "url": "https://www.marksandspencer.com/gr/chino-%CE%B1%CF%80%CF%8C-%CE%B5%CE%BB%CE%B1%CF%83%CF%84%CE%B9%CE%BA%CF%8C-%CE%B2%CE%B1%CE%BC%CE%B2%CE%AC%CE%BA%CE%B9-3-16-%CE%B5%CF%84%CF%8E%CE%BD/p/P60135897.html"
        },
        {
          "locale": "en-MY",
          "url": "https://www.marksandspencer.com/my/cotton-chinos-with-stretch-3-16-yrs/p/P60135897.html"
        },
        {
          "locale": "en-AL",
          "url": "https://www.marksandspencer.com/al/cotton-chinos-with-stretch-3-16-yrs/p/P60135897.html"
        },
        {
          "locale": "en-IT",
          "url": "https://www.marksandspencer.com/it/cotton-chinos-with-stretch-3-16-yrs/p/P60135897.html"
        },
        {
          "locale": "en-MX",
          "url": "https://www.marksandspencer.com/en-mx/cotton-chinos-with-stretch-3-16-yrs/p/P60135897.html"
        },
        {
          "locale": "fr-CA",
          "url": "https://www.marksandspencer.com/fr-ca/chino-en-coton-extensible-du-3-au-16andnbsp%3Bans/p/P60135897.html"
        },
        {
          "locale": "fr-CH",
          "url": "https://www.marksandspencer.com/fr-ch/chino-en-coton-extensible-du-3-au-16andnbsp%3Bans/p/P60135897.html"
        },
        {
          "locale": "en-AU",
          "url": "https://www.marksandspencer.com/au/cotton-chinos-with-stretch-3-16-yrs/p/P60135897.html"
        },
        {
          "locale": "en-AT",
          "url": "https://www.marksandspencer.com/en-at/cotton-chinos-with-stretch-3-16-yrs/p/P60135897.html"
        },
        {
          "locale": "en-CA",
          "url": "https://www.marksandspencer.com/ca/cotton-chinos-with-stretch-3-16-yrs/p/P60135897.html"
        },
        {
          "locale": "en-OM",
          "url": "https://www.marksandspencer.com/en-om/cotton-chinos-with-stretch-3-16-yrs/p/P60135897.html"
        },
        {
          "locale": "ar-AE",
          "url": "https://www.marksandspencer.com/ar-ae/%D8%B3%D8%B1%D9%88%D8%A7%D9%84-%D8%AA%D8%B4%D9%8A%D9%86%D9%88-%D9%85%D9%86-%D8%A7%D9%84%D9%82%D8%B7%D9%86-%D8%A7%D9%84%D9%85%D8%B7%D8%A7%D8%B7%D9%8A-3-16-%D8%B3%D9%86%D8%A9/p/P60135897.html"
        },
        {
          "locale": "en-CH",
          "url": "https://www.marksandspencer.com/ch/cotton-chinos-with-stretch-3-16-yrs/p/P60135897.html"
        },
        {
          "locale": "en-SA",
          "url": "https://www.marksandspencer.com/en-sa/cotton-chinos-with-stretch-3-16-yrs/p/P60135897.html"
        },
        {
          "locale": "de-AT",
          "url": "https://www.marksandspencer.com/at/chino-hose-aus-baumwolle-mit-stretchanteil-3%E2%80%9316-jahre/p/P60135897.html"
        },
        {
          "locale": "en-BN",
          "url": "https://www.marksandspencer.com/bn/cotton-chinos-with-stretch-3-16-yrs/p/P60135897.html"
        },
        {
          "locale": "en-FR",
          "url": "https://www.marksandspencer.com/en-fr/cotton-chinos-with-stretch-3-16-yrs/p/P60135897.html"
        },
        {
          "locale": "en-NZ",
          "url": "https://www.marksandspencer.com/nz/cotton-chinos-with-stretch-3-16-yrs/p/P60135897.html"
        },
        {
          "locale": "en-SE",
          "url": "https://www.marksandspencer.com/se/cotton-chinos-with-stretch-3-16-yrs/p/P60135897.html"
        },
        {
          "locale": "fr-BE",
          "url": "https://www.marksandspencer.com/fr-be/chino-en-coton-extensible-du-3-au-16andnbsp%3Bans/p/P60135897.html"
        },
        {
          "locale": "ar-QA",
          "url": "https://www.marksandspencer.com/ar-qa/%D8%B3%D8%B1%D9%88%D8%A7%D9%84-%D8%AA%D8%B4%D9%8A%D9%86%D9%88-%D9%85%D9%86-%D8%A7%D9%84%D9%82%D8%B7%D9%86-%D8%A7%D9%84%D9%85%D8%B7%D8%A7%D8%B7%D9%8A-3-16-%D8%B3%D9%86%D8%A9/p/P60135897.html"
        },
        {
          "locale": "en-SG",
          "url": "https://www.marksandspencer.com/sg/cotton-chinos-with-stretch-3-16-yrs/p/P60135897.html"
        }
      ]
    },
    {
      "id": "P60190917",
      "alternateURLs": [
        {
          "locale": "en-GB",
          "url": "https://www.marksandspencer.com/nest-9-plus/p/hbp60190917"
        },
        {
          "locale": "x-default",
          "url": "https://www.marksandspencer.com/nest-9-plus/p/hbp60190917"
        }
      ]
    }
  ],
  "pageNumber": 11,
  "totalPages": 1690,
  "pageSize": 2,
  "totalElements": 3379
}